^C:\USERS\ДИАНА\DESKTOP\SYNC\SYNC\DEBUG\PCH.OBJ|C:\USERS\ДИАНА\DESKTOP\SYNC\SYNC\DEBUG\SYNC.OBJ|C:\USERS\ДИАНА\DESKTOP\SYNC\SYNC\DEBUG\SYNC.RES|C:\USERS\ДИАНА\DESKTOP\SYNC\SYNC\DEBUG\SYNCDLG.OBJ
C:\USERS\Диана\DESKTOP\SYNC\DEBUG\SYNC.EXE
C:\USERS\Диана\DESKTOP\SYNC\DEBUG\SYNC.ILK
C:\USERS\ДИАНА\DESKTOP\SYNC\DEBUG\SYNC.PDB
